tb_top_serial_bcd.vcd
$date
	Thu Jun 26 10:55:35 2025
$end
$version
	Icarus Verilog
$end
$timescale
	1ps
$end
$scope module tb_top_serial_bcd $end
$var wire 1 ! done $end
$var wire 1 " data_enable $end
$var wire 1 # data $end
$var wire 1 $ busy $end
$var reg 1 % btn_press $end
$var reg 1 & clk $end
$var reg 1 ' is_op1 $end
$var reg 1 ( is_op2 $end
$var reg 1 ) is_res $end
$var reg 16 * op1 [15:0] $end
$var reg 16 + op2 [15:0] $end
$var reg 16 , res [15:0] $end
$var reg 1 - rst $end
$scope module dut $end
$var wire 1 % btn_press $end
$var wire 1 & clk $end
$var wire 1 ' is_op1 $end
$var wire 1 ( is_op2 $end
$var wire 1 ) is_res $end
$var wire 16 . op1 [15:0] $end
$var wire 16 / op2 [15:0] $end
$var wire 16 0 res [15:0] $end
$var wire 1 - reset $end
$var wire 1 ! done $end
$var wire 16 1 data_no_serial [15:0] $end
$var wire 1 " data_enable $end
$var wire 1 # data $end
$var wire 1 $ busy $end
$scope module pulse_gen $end
$var wire 1 & clk $end
$var wire 1 % pulse_in $end
$var wire 1 - rst $end
$var parameter 32 2 M $end
$var parameter 32 3 N $end
$var reg 2 4 delay_cnt [1:0] $end
$var reg 1 5 delaying $end
$var reg 1 6 extending $end
$var reg 1 " pulse_out $end
$var reg 5 7 width_cnt [4:0] $end
$upscope $end
$scope module serial_tx $end
$var wire 1 & clk $end
$var wire 16 8 data_to_show [15:0] $end
$var wire 1 " enable $end
$var wire 1 - reset $end
$var reg 5 9 bit_count [4:0] $end
$var reg 1 $ busy $end
$var reg 1 ! done $end
$var reg 1 # serial_out $end
$var reg 16 : shift_reg [15:0] $end
$upscope $end
$upscope $end
$upscope $end
$enddefinitions $end
$comment Show the parameter values. $end
$dumpall
b10010 3
b10 2
$end
#0
$dumpvars
bx :
bx 9
b0 8
b0 7
06
05
b0 4
b0 1
b110010110010000 0
b111100110000110 /
b1111111111111111 .
1-
b110010110010000 ,
b111100110000110 +
b1111111111111111 *
0)
0(
0'
0&
0%
x$
x#
x"
x!
$end
#5000
0"
b0 :
0#
b0 9
0!
0$
1&
#10000
0&
#15000
1&
#20000
b1111111111111111 1
b1111111111111111 8
0&
1%
1'
0-
#25000
b1 4
15
1&
#30000
0&
0%
#35000
b10 4
1&
#40000
0&
#45000
1"
b1 7
16
05
1&
#50000
0&
#55000
1$
b1111111111111111 :
b10 7
1&
#60000
0&
#65000
b11 7
b1 9
b111111111111111 :
1#
1&
#70000
0&
#75000
b10 9
b11111111111111 :
b100 7
1&
#80000
0&
#85000
b101 7
b11 9
b1111111111111 :
1&
#90000
0&
#95000
b100 9
b111111111111 :
b110 7
1&
#100000
0&
#105000
b111 7
b101 9
b11111111111 :
1&
#110000
0&
#115000
b110 9
b1111111111 :
b1000 7
1&
#120000
0&
#125000
b1001 7
b111 9
b111111111 :
1&
#130000
0&
#135000
b1000 9
b11111111 :
b1010 7
1&
#140000
0&
#145000
b1011 7
b1001 9
b1111111 :
1&
#150000
0&
#155000
b1010 9
b111111 :
b1100 7
1&
#160000
0&
#165000
b1101 7
b1011 9
b11111 :
1&
#170000
0&
#175000
b1100 9
b1111 :
b1110 7
1&
#180000
0&
#185000
b1111 7
b1101 9
b111 :
1&
#190000
0&
#195000
b1110 9
b11 :
b10000 7
1&
#200000
0&
#205000
b10001 7
b1111 9
b1 :
1&
#210000
0&
#215000
b10000 9
b0 :
b10010 7
1&
#220000
0&
#225000
0"
06
1!
0$
b10001 9
0#
1&
#230000
0&
#235000
0!
1&
